{
  "profiles": {
    "LogicaAplicacion": {
      "commandName": "Project",
      "launchBrowser": true,
      "environmentVariables": {
        "ASPNETCORE_ENVIRONMENT": "Development"
      },
      "applicationUrl": "https://localhost:60557;http://localhost:60558"
    }
  }
}